{
  "store.search": {
    "blocks": [
      "search-result-layout#result-search"
    ],
    "props": {
      "context": {
        "skusFilter": "FIRST_AVAILABLE",
        "simulationBehavior": "default",
        "maxItemsPerPage": 18
      }
    }
  }
}