{
  "header": {
    "blocks": ["header-layout.desktop", "header-layout.mobile"]
  },
  "header.full": {
    "blocks": ["header-layout.desktop", "header-layout.mobile"]
  },
  // DESKTOP
  "header-layout.desktop": {
    "title": "Container Header Desk",
    "children": ["get-navigation-info", "get-organization-info", "set-structedData-info", "back-to-top", "sticky-layout#header-desktop"]
  },
  "sticky-layout#header-desktop": {
    "title": "Header Desk",
    "props": {
      "blockClass": "container__header-desktop"
    },
    "children": ["toggle-layout#top-bar-text", "flex-layout.row#content-header-desktop", "avanti-menu-desktop"]
  },
  "flex-layout.row#content-header-desktop": {
    "title": "Container Logo-Menu-Login-Minicart",
    "props": {
      "blockClass": "main-header",
      "horizontalAlign": "center",
      "verticalAlign": "center",
      "preventHorizontalStretch": true,
      "preventVerticalStretch": true,
      "fullWidth": true
    },
    "children": ["flex-layout.col#logo-desktop", "search-bar", "regionalization-trigger", "login", "image-new-custom#icon-wishlist", "minicart.v2"]
  },
  "login": {
    "props": {
      "accountOptionLinks": [
        {
          "label": "Meus pedidos",
          "path": "/account#/orders",
          "cssClass": "myaccount-pedidos"
        },
        {
          "label": "Minha conta",
          "path": "/account#",
          "cssClass": "myaccount"
        }
      ]
    }
  },
  "image-new-custom#icon-wishlist": {
    "props": {
      "src": "assets/icons/icon-wishlist.svg",
      "width": 23,
      "height": 22,
      "description": "Favoritos",
      "link": {
        "url": "/account#/wishlist",
        "title": "Favoritos"
      },
      "blockClass": "container-icon-wishlist",
      "loading": "eager"
    }
  },
  // MOBILE
  "header-layout.mobile": {
    "title": "Container Header Mob",
    "children": ["get-navigation-info", "get-organization-info", "set-structedData-info", "back-to-top", "toggle-layout#top-bar-text", "flex-layout.row#content-header", "second-header"]
  },
  "flex-layout.row#content-header": {
    "title": "Header Mob",
    "props": {
      "blockClass": "container__content-header-row",
      "preserveLayoutOnMobile": true,
      "fullWidth": true
    },
    "children": ["flex-layout.col#content-header"]
  },
  "flex-layout.col#content-header": {
    "props": {
      "blockClass": "container__content-header-col",
      "preventVerticalStretch": true,
      "fullWidth": true
    },
    "children": ["flex-layout.row#content-principal-header-mobile", "flex-layout.row#search-mobile", "regionalization-trigger"]
  },
  "flex-layout.row#content-principal-header-mobile": {
    "title": "Container Menu-Logo-Minicart",
    "children": ["avanti-menu-mobile", "logo#mobile", "minicart.v2"],
    "props": {
      "blockClass": "main-header-mobile",
      "preventHorizontalStretch": true,
      "preserveLayoutOnMobile": true,
      "fullWidth": true
    }
  },
  "flex-layout.row#content-second-header-mobile": {
    "title": "Second Container Menu-Logo-Minicart",
    "children": ["avanti-menu-mobile", "logo#mobile-second-header", "flex-layout.row#search-mobile", "minicart.v2"],
    "props": {
      "blockClass": ["main-header-mobile", "second-header-mobile"],
      "preventHorizontalStretch": true,
      "preserveLayoutOnMobile": true,
      "fullWidth": true
    }
  },
  "second-header": {
    "children": ["flex-layout.row#content-second-header-mobile"]
  }
}
