<svg xmlns="http://www.w3.org/2000/svg" width="23.923" height="23.948" viewBox="0 0 23.923 23.948">
  <g id="Grupo_19092" data-name="Grupo 19092" transform="translate(-5.157 -5.157)">
    <g id="Grupo_19094" data-name="Grupo 19094" transform="translate(5.657 5.657)">
      <rect id="Retângulo_5782" data-name="Retângulo 5782" width="15.252" height="2.498" transform="translate(7.67 1.31)" fill="#1c2376" stroke="#fafafb" stroke-width="1"/>
      <rect id="Retângulo_5783" data-name="Retângulo 5783" width="15.238" height="2.5" transform="translate(7.683 10.227)" fill="#1c2376" stroke="#fafafb" stroke-width="1"/>
      <rect id="Retângulo_5784" data-name="Retângulo 5784" width="15.238" height="2.499" transform="translate(7.684 19.146)" fill="#1c2376" stroke="#fafafb" stroke-width="1"/>
      <path id="Caminho_20024" data-name="Caminho 20024" d="M114.461,117.012c-.411,0-.822.008-1.233,0a1.26,1.26,0,0,1-1.3-1.273q-.024-1.273,0-2.546a1.249,1.249,0,0,1,1.261-1.269c.862-.017,1.724-.018,2.586,0a1.241,1.241,0,0,1,1.239,1.249q.027,1.292,0,2.586a1.254,1.254,0,0,1-1.279,1.252c-.424.012-.849,0-1.273,0" transform="translate(-111.917 -111.91)" fill="#1c2376" stroke="#fafafb" stroke-width="1"/>
      <path id="Caminho_20025" data-name="Caminho 20025" d="M114.492,229.018c-.424,0-.849.01-1.273,0a1.261,1.261,0,0,1-1.282-1.291q-.02-1.253,0-2.506a1.255,1.255,0,0,1,1.28-1.291c.848-.015,1.7-.016,2.546,0a1.249,1.249,0,0,1,1.261,1.269q.023,1.273,0,2.546a1.26,1.26,0,0,1-1.3,1.274c-.411.01-.822,0-1.233,0" transform="translate(-111.926 -214.998)" fill="#1c2376" stroke="#fafafb" stroke-width="1"/>
      <path id="Caminho_20026" data-name="Caminho 20026" d="M111.971,338.465c0-.424-.011-.849,0-1.273a1.255,1.255,0,0,1,1.261-1.27c.862-.017,1.724-.018,2.585,0a1.242,1.242,0,0,1,1.239,1.248q.027,1.292,0,2.586a1.241,1.241,0,0,1-1.239,1.248c-.875.019-1.751.021-2.625,0a1.242,1.242,0,0,1-1.219-1.227c-.018-.437,0-.875,0-1.313h0" transform="translate(-111.963 -318.073)" fill="#1c2376" stroke="#fafafb" stroke-width="1"/>
    </g>
  </g>
</svg>
