<svg width="39" height="31" viewBox="0 0 39 31" fill="none" xmlns="http://www.w3.org/2000/svg">
<g id="let-s-encrypt\" clip-path="url(#clip0_212_6333)">
<g id="Group">
<g id="Group_2">
<path id="Vector" d="M33.6837 10.7258H31.4576V9.57767C31.4576 8.66383 30.7078 7.91401 29.794 7.91401C28.8801 7.91401 28.1303 8.66383 28.1303 9.57767V10.7258H25.9043V9.57767C25.9043 7.42194 27.6617 5.68799 29.794 5.68799C31.9497 5.68799 33.6837 7.44538 33.6837 9.57767V10.7258Z" fill="#FFA400"/>
<path id="Vector_2" d="M34.5971 10.7258H24.9901C24.5683 10.7258 24.2402 11.0539 24.2402 11.4756V18.5755C24.2402 18.9973 24.5683 19.3253 24.9901 19.3253H34.5971C35.0189 19.3253 35.3469 18.9973 35.3469 18.5755V11.4756C35.3235 11.0539 34.9954 10.7258 34.5971 10.7258ZM30.2622 15.3888V16.3495C30.2622 16.6072 30.0513 16.8415 29.7701 16.8415C29.5124 16.8415 29.2781 16.6307 29.2781 16.3495V15.3888C28.9735 15.2247 28.786 14.8967 28.786 14.5218C28.786 13.9829 29.2312 13.5377 29.7701 13.5377C30.3091 13.5377 30.7543 13.9829 30.7543 14.5218C30.7777 14.8967 30.5668 15.2247 30.2622 15.3888Z" fill="#003A70"/>
<path id="Vector_3" d="M24.0061 9.67142H21.6864C21.3114 9.67142 21.0068 9.36681 21.0068 8.9919C21.0068 8.61699 21.3114 8.31238 21.6864 8.31238H24.0061C24.381 8.31238 24.6856 8.61699 24.6856 8.9919C24.6856 9.36681 24.381 9.67142 24.0061 9.67142Z" fill="#FFA400"/>
<path id="Vector_4" d="M25.6465 6.01607C25.5059 6.01607 25.3419 5.96921 25.2248 5.85205L23.3971 4.35241C23.1159 4.11809 23.069 3.69632 23.3033 3.39171C23.5377 3.11052 23.9594 3.06366 24.2641 3.29798L26.0917 4.79762C26.3729 5.03193 26.4198 5.45371 26.1855 5.75832C26.0214 5.92234 25.834 6.01607 25.6465 6.01607Z" fill="#FFA400"/>
<path id="Vector_5" d="M29.7938 4.42269C29.4189 4.42269 29.1143 4.11808 29.1143 3.74317V1.39998C29.1143 1.02507 29.4189 0.720459 29.7938 0.720459C30.1687 0.720459 30.4733 1.02507 30.4733 1.39998V3.74317C30.4733 4.11808 30.1687 4.42269 29.7938 4.42269Z" fill="#FFA400"/>
<path id="Vector_6" d="M33.9175 6.01583C33.73 6.01583 33.5191 5.9221 33.402 5.75808C33.1677 5.47689 33.2145 5.03169 33.4957 4.79737L35.3234 3.29773C35.6046 3.06342 36.0498 3.11028 36.2841 3.39146C36.5184 3.67264 36.4716 4.11785 36.1904 4.35217L34.3627 5.8518C34.2221 5.96896 34.0815 6.01583 33.9175 6.01583Z" fill="#FFA400"/>
<path id="Vector_7" d="M37.8782 9.6713H35.535C35.1601 9.6713 34.8555 9.36669 34.8555 8.99178C34.8555 8.61687 35.1601 8.31226 35.535 8.31226H37.8782C38.2531 8.31226 38.5577 8.61687 38.5577 8.99178C38.5577 9.36669 38.2531 9.6713 37.8782 9.6713Z" fill="#FFA400"/>
</g>
<path id="Vector_8" d="M0.0585938 19.2317V11.6632H1.88628V17.6383H4.81526V19.2317H0.0585938ZM10.8607 16.6307V16.8416V17.0525H6.99442C7.01785 17.1931 7.06471 17.3337 7.13501 17.4508C7.2053 17.568 7.29903 17.6852 7.41619 17.7555C7.53335 17.8492 7.67394 17.9195 7.81453 17.9663C7.95512 18.0132 8.11914 18.0366 8.25974 18.0366C8.54092 18.0366 8.77524 17.9898 8.96269 17.8726C9.15015 17.7789 9.31417 17.6383 9.43133 17.4743L10.6498 18.2475C10.392 18.6224 10.064 18.8802 9.66565 19.0911C9.26731 19.2785 8.77524 19.3957 8.2363 19.3957C7.83796 19.3957 7.46305 19.3254 7.11158 19.2082C6.7601 19.0911 6.45548 18.9036 6.1743 18.6693C5.91655 18.435 5.70567 18.1304 5.54164 17.7789C5.37762 17.4274 5.30732 17.0291 5.30732 16.5839C5.30732 16.1387 5.37762 15.7637 5.54164 15.4123C5.68223 15.0608 5.89312 14.7562 6.15087 14.5219C6.40862 14.2875 6.71324 14.0767 7.06471 13.9595C7.41619 13.8189 7.7911 13.7486 8.18944 13.7486C8.58778 13.7486 8.93926 13.8189 9.2673 13.9361C9.59535 14.0767 9.87653 14.2641 10.1109 14.4984C10.3452 14.7562 10.5326 15.0608 10.6498 15.4123C10.7904 15.7872 10.8607 16.1855 10.8607 16.6307ZM9.24387 15.9746C9.24387 15.6935 9.15015 15.4591 8.98612 15.2482C8.8221 15.0374 8.54092 14.9436 8.18944 14.9436C8.02542 14.9436 7.86139 14.9671 7.7208 15.0139C7.58021 15.0608 7.46305 15.1311 7.34589 15.2248C7.22874 15.3185 7.15844 15.4357 7.08814 15.5529C7.01785 15.67 6.99442 15.8106 6.97098 15.9512H9.24387V15.9746ZM13.6725 15.2248V17.2634C13.6725 17.5211 13.7194 17.7086 13.8131 17.8257C13.9068 17.9429 14.0708 18.0132 14.3286 18.0132C14.4223 18.0132 14.516 18.0132 14.6098 17.9898C14.7035 17.9663 14.7972 17.9429 14.8441 17.9195L14.8675 19.2082C14.7504 19.2551 14.5863 19.2785 14.3989 19.3254C14.2114 19.3488 14.024 19.3722 13.8365 19.3722C13.485 19.3722 13.1804 19.3254 12.9461 19.2317C12.7118 19.1379 12.5009 19.0208 12.3603 18.8567C12.2197 18.6927 12.1026 18.4818 12.0557 18.2475C12.0088 18.0132 11.962 17.7555 11.962 17.4743V15.2248H11.095V13.9126H11.9385V12.5067H13.6725V13.9126H14.9144V15.2248H13.6725ZM16.5312 11.5226C16.0157 11.5226 15.5939 11.8975 15.5939 12.3896C15.5939 12.9051 15.9454 13.2331 16.4609 13.2331C16.5077 13.2331 16.5546 13.2331 16.578 13.2097C16.4843 13.5846 16.1328 13.8658 15.7814 13.9126H15.7111V14.7327H15.8048C16.2266 14.6859 16.6249 14.4984 16.9295 14.2172C17.3279 13.8423 17.5387 13.28 17.5387 12.6239C17.5387 11.9912 17.117 11.5226 16.5312 11.5226ZM20.5849 15.4826C20.4443 15.342 20.2803 15.2248 20.0928 15.1311C19.9054 15.0374 19.6945 14.9905 19.4836 14.9905C19.3196 14.9905 19.179 15.0139 19.0384 15.0842C18.8978 15.1545 18.8275 15.2482 18.8275 15.4123C18.8275 15.5529 18.8978 15.67 19.0618 15.7403C19.2258 15.8106 19.4602 15.8809 19.8116 15.9512C20.0225 15.9981 20.21 16.0449 20.4209 16.1387C20.6317 16.2324 20.7958 16.3261 20.9598 16.4433C21.1238 16.5604 21.2644 16.7245 21.3581 16.9119C21.4519 17.0994 21.4987 17.3102 21.4987 17.568C21.4987 17.896 21.4284 18.1772 21.2878 18.4115C21.1472 18.6459 20.9832 18.8333 20.7489 18.9739C20.538 19.1145 20.2803 19.2082 20.0225 19.2785C19.7413 19.3488 19.4836 19.3722 19.2024 19.3722C18.7572 19.3722 18.3354 19.302 17.9371 19.1614C17.5153 19.0208 17.1638 18.8099 16.9061 18.5521L17.8902 17.5211C18.0542 17.6852 18.2417 17.8257 18.476 17.9429C18.7103 18.0601 18.9447 18.1069 19.2024 18.1069C19.343 18.1069 19.4836 18.0835 19.6242 18.0132C19.7648 17.9429 19.8351 17.8257 19.8351 17.6617C19.8351 17.4977 19.7413 17.3805 19.5773 17.2868C19.4133 17.2165 19.1321 17.1228 18.7806 17.0525C18.5932 17.0056 18.4057 16.9588 18.2183 16.8885C18.0308 16.8182 17.8668 16.7245 17.7262 16.6073C17.5856 16.4901 17.4684 16.3261 17.3747 16.1621C17.281 15.9746 17.2341 15.7637 17.2341 15.5294C17.2341 15.2014 17.3044 14.9436 17.445 14.7093C17.5856 14.475 17.7496 14.311 17.9605 14.1704C18.1714 14.0298 18.4057 13.9126 18.6635 13.8658C18.9212 13.7955 19.179 13.772 19.4367 13.772C19.8351 13.772 20.2334 13.8423 20.6083 13.9595C20.9832 14.0767 21.3113 14.2641 21.569 14.5219L20.5849 15.4826ZM0.0585938 27.9952V20.4267H5.1433V21.9732H1.81598V23.4025H4.95585V24.8553H1.81598V26.4252H5.33076V27.9952H0.0585938ZM9.94683 27.9952V25.0896C9.94683 24.949 9.9234 24.8084 9.89996 24.6678C9.87653 24.5273 9.82967 24.4101 9.78281 24.3164C9.73594 24.2226 9.64221 24.1289 9.54849 24.082C9.45476 24.0118 9.31417 23.9883 9.15015 23.9883C8.98612 23.9883 8.84553 24.0118 8.72837 24.082C8.61121 24.1523 8.51749 24.2226 8.42376 24.3398C8.35346 24.457 8.28317 24.5741 8.2363 24.7147C8.18944 24.8553 8.16601 24.9959 8.16601 25.1365V28.0186H6.40862V22.6996H8.09571V23.426H8.11914C8.18944 23.3088 8.25974 23.1916 8.3769 23.0979C8.47062 22.9808 8.61121 22.887 8.72837 22.8167C8.86896 22.7464 9.00955 22.6761 9.17358 22.6293C9.3376 22.5824 9.50162 22.559 9.68908 22.559C10.0406 22.559 10.3452 22.6293 10.6029 22.7464C10.8607 22.8636 11.0481 23.051 11.2121 23.2385C11.3762 23.4494 11.4699 23.6837 11.5402 23.9415C11.6105 24.1992 11.6339 24.457 11.6339 24.7381V28.0186H9.94683V27.9952ZM16.2266 24.3867C16.1328 24.2695 15.9922 24.1523 15.8282 24.082C15.6642 24.0118 15.4767 23.9649 15.3127 23.9649C15.1253 23.9649 14.9612 24.0118 14.8206 24.082C14.6801 24.1523 14.5395 24.2461 14.4457 24.3867C14.352 24.5273 14.2583 24.6444 14.188 24.8084C14.1177 24.9725 14.0943 25.1365 14.0943 25.3239C14.0943 25.5114 14.1177 25.6754 14.188 25.8394C14.2349 26.0035 14.3286 26.144 14.4457 26.2612C14.5629 26.3784 14.6801 26.4955 14.8441 26.5658C15.0081 26.6361 15.1721 26.683 15.3596 26.683C15.547 26.683 15.7111 26.6595 15.8985 26.5893C16.0625 26.519 16.2031 26.4252 16.3203 26.2846L17.281 27.4797C17.0701 27.6905 16.7655 27.8546 16.4374 27.9717C16.086 28.0889 15.7111 28.1592 15.3362 28.1592C14.9144 28.1592 14.516 28.0889 14.1646 27.9717C13.7896 27.8546 13.485 27.6671 13.2039 27.4094C12.9461 27.175 12.7352 26.8704 12.5712 26.519C12.4072 26.1675 12.3369 25.7691 12.3369 25.3239C12.3369 24.8787 12.4072 24.5038 12.5712 24.1523C12.7352 23.8009 12.9461 23.4963 13.2039 23.2619C13.4616 23.0276 13.7896 22.8167 14.1646 22.6996C14.5395 22.559 14.9144 22.5121 15.3362 22.5121C15.5236 22.5121 15.7111 22.5355 15.8985 22.559C16.086 22.6058 16.2734 22.6527 16.4374 22.6996C16.6015 22.7699 16.7655 22.8402 16.9295 22.9339C17.0701 23.0276 17.2107 23.1213 17.3044 23.2385L16.2266 24.3867ZM21.3347 24.1289C21.2644 24.1055 21.1707 24.082 21.1004 24.082H20.8895C20.6552 24.082 20.4677 24.1289 20.3037 24.1992C20.1397 24.2929 20.0225 24.3867 19.9288 24.5038C19.8351 24.621 19.7648 24.7616 19.7179 24.9022C19.671 25.0428 19.6476 25.1599 19.6476 25.2771V27.9952H17.8902V22.6761H19.5773V23.4494H19.6007C19.7413 23.1682 19.9288 22.9573 20.1865 22.7933C20.4443 22.6293 20.7255 22.5355 21.0535 22.5355H21.2644C21.3347 22.5355 21.3816 22.559 21.4284 22.559L21.3347 24.1289ZM25.4587 28.7918C25.3415 29.073 25.2244 29.3073 25.1072 29.5417C24.9666 29.7526 24.826 29.94 24.6386 30.104C24.4511 30.2681 24.2402 30.3618 24.0059 30.4555C23.7716 30.5258 23.467 30.5727 23.139 30.5727C22.9749 30.5727 22.8109 30.5727 22.6235 30.5492C22.4594 30.5258 22.2954 30.5024 22.1782 30.4555L22.3657 28.9793C22.4594 29.0027 22.5532 29.0262 22.6469 29.0496C22.7406 29.073 22.8343 29.073 22.9281 29.073C23.2092 29.073 23.3967 29.0027 23.5139 28.8856C23.631 28.7684 23.7482 28.581 23.8185 28.3466L23.9825 27.9014L21.7565 22.6761H23.7013L24.8963 26.0972H24.9198L25.9742 22.6761H27.8253L25.4587 28.7918ZM34.2222 25.3239C34.2222 25.6988 34.1753 26.0503 34.0582 26.4018C33.941 26.7533 33.777 27.0345 33.5661 27.3156C33.3552 27.5734 33.074 27.7843 32.7694 27.9483C32.4648 28.1123 32.0899 28.1826 31.6916 28.1826C31.3635 28.1826 31.0589 28.1123 30.7543 27.9952C30.4731 27.8546 30.2388 27.6906 30.0748 27.4562H30.0513V30.6195H28.294V22.7464H29.9576V23.4025H29.981C30.1451 23.1916 30.3794 23.0042 30.6606 22.8402C30.9418 22.6761 31.2932 22.6058 31.6916 22.6058C32.0665 22.6058 32.418 22.6761 32.746 22.8402C33.0506 22.9808 33.3318 23.1916 33.5427 23.4494C33.7536 23.7071 33.9176 24.0118 34.0348 24.3398C34.1519 24.5975 34.2222 24.949 34.2222 25.3239ZM32.5117 25.3239C32.5117 25.1599 32.4883 24.9959 32.4414 24.8319C32.3945 24.6678 32.3008 24.5273 32.2071 24.4101C32.1133 24.2929 31.9728 24.1758 31.8087 24.1055C31.6447 24.0352 31.4807 23.9883 31.2698 23.9883C31.0589 23.9883 30.8949 24.0352 30.7309 24.1055C30.5668 24.1758 30.4497 24.2929 30.3325 24.4101C30.2154 24.5273 30.1451 24.6913 30.0748 24.8553C30.0045 25.0193 29.981 25.1833 29.981 25.3474C29.981 25.5114 30.0045 25.6754 30.0748 25.8394C30.1451 26.0035 30.2154 26.144 30.3325 26.2846C30.4497 26.4018 30.5668 26.519 30.7309 26.5893C30.8949 26.6595 31.0589 26.7064 31.2698 26.7064C31.4807 26.7064 31.6681 26.6595 31.8087 26.5893C31.9728 26.519 32.0899 26.4018 32.2071 26.2846C32.3008 26.1675 32.3945 26.0035 32.4414 25.8394C32.4883 25.652 32.5117 25.488 32.5117 25.3239ZM37.0106 23.9883V26.0269C37.0106 26.2846 37.0575 26.4721 37.1512 26.5893C37.2449 26.7064 37.4089 26.7767 37.6667 26.7767C37.7604 26.7767 37.8541 26.7767 37.9479 26.7533C38.0416 26.7298 38.1353 26.7064 38.1822 26.683L38.2056 27.9717C38.0885 28.0186 37.9244 28.042 37.737 28.0889C37.5495 28.1123 37.3621 28.1358 37.1746 28.1358C36.8231 28.1358 36.5185 28.0889 36.2842 27.9952C36.0499 27.9014 35.839 27.7843 35.6984 27.6203C35.5578 27.4562 35.4407 27.2453 35.3938 27.011C35.3469 26.7767 35.3001 26.519 35.3001 26.2378V23.9883H34.4565V22.6761H35.3001V21.2702H37.0106V22.6761H38.2525V23.9883H37.0106Z" fill="#003A70"/>
</g>
</g>
<defs>
<clipPath id="clip0_212_6333">
<rect width="38.593" height="30" fill="white" transform="translate(0 0.673584)"/>
</clipPath>
</defs>
</svg>
