{
  "rich-text#link-central-de-ajuda-01": {
    "title": "Menu Link 01",
    "props": {
      "blockClass": [
        "footer-submenu-item",
        "footerSubmenuItem--to-replace"
      ],
      "text": "##### [Fale Conosco](/fale-conosco)"
    }
  },
  "rich-text#link-central-de-ajuda-02": {
    "title": "Menu Link 02",
    "props": {
      "blockClass": [
        "footer-submenu-item",
        "footerSubmenuItem--to-replace"
      ],
      "text": "##### [Frete e Entregue](/frete-e-entrega)"
    }
  },
  "rich-text#link-central-de-ajuda-03": {
    "title": "Menu Link 03",
    "props": {
      "blockClass": [
        "footer-submenu-item",
        "footerSubmenuItem--to-replace"
      ],
      "text": "##### [Trocas e Devoluções](/trocas-e-devolucoes)"
    }
  },
  "rich-text#link-central-de-ajuda-04": {
    "title": "Menu Link 04",
    "props": {
      "blockClass": [
        "footer-submenu-item",
        "footerSubmenuItem--to-replace"
      ],
      "text": "##### [Formas de Pagamento](/formas-de-pagamento)"
    }
  },
  "rich-text#link-central-de-ajuda-05": {
    "title": "Menu Link 04",
    "props": {
      "blockClass": [
        "footer-submenu-item",
        "footerSubmenuItem--to-replace"
      ],
      "text": "##### [FAQ](/faq)"
    }
  }
}