{
  "store.custom#inst-page-about-us": {
    "path": "/sobre-nos"
  },
  "store.custom#inst-page-ourstores": {
    "path": "/nossas-lojas"
  },
  "store.custom#inst-page-privacy-and-security": {
    "path": "/privacidade-e-seguranca"
  },
  "store.custom#inst-page-terms-and-conditions": {
    "path": "/termos-e-condicoes"
  },
  "store.custom#inst-page-contact-us": {
    "path": "/fale-conosco"
  },
  "store.custom#inst-page-shipping-and-delivery": {
    "path": "/frete-e-entrega"
  },
  "store.custom#inst-page-exchanges-and-returns": {
    "path": "/trocas-e-devolucoes"
  },
  "store.custom#inst-page-payment-methods": {
    "path": "/formas-de-pagamento"
  },
  "store.custom#inst-page-faq": {
    "path": "/perguntas-frequentes"
  },
  "store.custom#collections": {
    "path": "/colection-page"
  }
}