{
  "my-account-link.wishlist-link": {
    "props": {
      "label": "Favoritos"
    }
  },
  "my-account-page.wishlist-page": {
    "props": {
      "title": "Favoritos"
    },
    "children": [
      "list-context.wishlist"
    ]
  },
  "store.wishlist": {
    "blocks": [
      "flex-layout.row#top",
      "list-context.wishlist"
    ]
  },
  "flex-layout.row#top": {
    "children": [
      "flex-layout.col#title"
    ]
  },
  "flex-layout.col#title": {
    "children": [
      "rich-text#title"
    ],
    "props": {
      "blockClass": "titleWishlist",
      "preventVerticalStretch": true
    }
  },
  "rich-text#title": {
    "props": {
      "text": "### Favoritos"
    }
  },
  "list-context.wishlist": {
    "blocks": [
      "wishlist-empty-list",
      "product-summary.shelf"
    ],
    "children": [
      "list-context-renderer#wrapped"
    ]
  },
  "wishlist-empty-list": {
    "children": [
      "rich-text#description"
    ]
  },
  "rich-text#description": {
    "props": {
      "text": "### Lista de favoritos vazia",
      "textAlignment": "CENTER",
      "textPosition": "CENTER",
      "font": "t-heading-2"
    }
  },
  "list-context-renderer#wrapped": {
    "props": {
      "blockClass": "container__shelf-with-list",
      "listElement": "ul",
      "itemElement": "li"
    }
  }
}