{
  "store.product": {
    "children": [
      "get-breadcrumb-info",
      "get-product-info",
      "get-website-info",
      "flex-layout.row#product-breadcrumb",
      "condition-layout.product#availability",
      "flex-layout.row#description",
      "flex-layout.row#releated-shelf"
    ]
  }
}