{
  "flex-layout.row#inst-breadcrumb-contact-us": {
    "title": "Conteúdo Breadcrumb",
    "props": {
      "blockClass": [
        "inst-breadcrumb-container"
      ],
      "preventHorizontalStretch": true,
      "preventVerticalStretch": true,
      "preserveLayoutOnMobile": true,
      "fullWidth": true
    },
    "children": [
      "rich-text#inst-breadcrumb-home",
      "image-new-custom#inst-breadcrumb-arrow",
      "rich-text#inst-breadcrumb-term-contact-us"
    ]
  },
  "rich-text#inst-breadcrumb-term-contact-us": {
    "title": "Texto Nome Da Pagina",
    "props": {
      "blockClass": "inst-breadcrumb-term",
      "text": "Fale conosco"
    }
  }
}